<?xml version="1.0" encoding="UTF-8"?>
<session version="1.0">
<refactoring comment="Delete resource &apos;Robo&apos;" deleteContents="false" description="Delete resource &apos;Robo&apos;" element1="/Robo" flags="7" id="org.eclipse.ltk.core.refactoring.delete.resources" resources="1" stamp="1580341165054"/>
</session>